day,temp
1,32.33
2,27.34
3,19.35
4,46.42
5,26.55
6,22.69
7,33.71
8,34.75
9,10.81
10,40.8
11,23.89
12,39.91
13,35.85
14,32.89
15,31.89
16,37.67
17,36.5
18,35.74
19,38.77
20,30.76
21,28.78
22,29.82
23,34.89
24,36.99
25,38.92
26,39.99
27,32.89
28,34.94
29,26.92
30,31.97
31,35.91
